{
    "Gamma": 2.0,
    "R": 2.5,
    "T_brine_method": "stationary",
    "g_method": {
        "arguments": {},
        "type": "GCone"
    },
    "adiabat": 0.0,
    "calculation_mode": {
        "arguments": {
            "arguments": {
                "precision": 0.01
            },
            "load_file": "EWS-1a-5x5.csv"
        },
        "type": "PCalculationMode"
    },
    "dhe": [
        {
            "D": 0.04,
            "D_borehole": 0.135,
            "L": 199.7,
            "R1": 0.00157782237748825,
            "Ra": 0.252072903027523,
            "Rb": 0.0746663386837654,
            "Phi_m": 0.854,
            "brine_properties": {
                "c": 3905.0,
                "lambda_": 0.5,
                "nu": 3.5e-06,
                "rho": 1037.0
            },
            "T_soil_0_parameters": {
                "d_DHE": 10.0,
                "g_coefs": [
                    4.82,
                    5.69,
                    6.29,
                    6.57,
                    6.6
                ]
            },
            "fill_properties": {
                "c": 3040.0,
                "lambda_": 0.81,
                "rho": 1180.0
            },
            "thickness": 0.0037,
            "x": 0.0,
            "y": 0.0
        }
    ],
    "dim_ax": 5,
    "dim_rad": 5,
    "dt": 3600.0,
    "dt_boundary_refresh": 604800.0,
    "n_steps_0": 4.0,
    "opt_n_steps_multiplier": 2.0,
    "soil_layers": [
        {
            "c": 1000.0,
            "d": 150.0,
            "lambda_": 2.4,
            "rho": 2600.0
        },
        {
            "c": 1000.0,
            "d": 150.0,
            "lambda_": 2.4,
            "rho": 2600.0
        },
        {
            "c": 1000.0,
            "d": 150.0,
            "lambda_": 2.4,
            "rho": 2600.0
        },
        {
            "c": 1000.0,
            "d": 150.0,
            "lambda_": 2.4,
            "rho": 2600.0
        },
        {
            "c": 1000.0,
            "d": 150.0,
            "lambda_": 2.4,
            "rho": 2600.0
        }
    ],
    "soil_parameters": {
        "T_grad": 0.03,
        "T_soil_mean": 9.8
    },
    "t0": 0.0
}
